{
  "display": {
    "firstperson_lefthand": {
      "scale": [
        0.75,
        0.75,
        0.75
      ],
      "translation": [
        0,
        -16,
        -9
      ]
    },
    "firstperson_righthand": {
      "scale": [
        0.75,
        0.75,
        0.75
      ],
      "translation": [
        0,
        -16,
        -9
      ]
    },
    "fixed": {
      "rotation": [
        0,
        -90,
        90
      ],
      "scale": [
        0.5,
        0.5,
        0.5
      ],
      "translation": [
        8,
        4,
        -4
      ]
    },
    "ground": {
      "scale": [
        0.4,
        0.4,
        0.4
      ]
    },
    "gui": {
      "rotation": [
        -139,
        -29.25,
        -180
      ],
      "scale": [
        0.34,
        0.34,
        0.34
      ],
      "translation": [
        1.35,
        -3.2,
        0
      ]
    },
    "thirdperson_lefthand": {
      "rotation": [
        35,
        0,
        0
      ],
      "scale": [
        0.5,
        0.5,
        0.5
      ],
      "translation": [
        -8,
        -7.5,
        -3
      ]
    },
    "thirdperson_righthand": {
      "rotation": [
        35,
        0,
        0
      ],
      "scale": [
        0.5,
        0.5,
        0.5
      ],
      "translation": [
        -8,
        -7.5,
        -3
      ]
    }
  },
  "loader": "tcombat:structure",
  "structure": [
    {
      "model": {
        "parent": "minecraft:block/lever"
      },
      "transform": {
        "translation": [
          1.0,
          1.0,
          1.0
        ]
      }
    },
    {
      "model": {
        "parent": "minecraft:block/oak_fence_post"
      },
      "transform": {
        "origin": [
          0.5,
          0.5,
          0.5
        ],
        "rotation": [
          0.0,
          0.0,
          90.0
        ],
        "translation": [
          -1.0,
          0.75,
          0.0
        ]
      }
    },
    {
      "model": {
        "parent": "minecraft:block/stone_slab"
      },
      "transform": {
        "translation": [
          0.0,
          1.0,
          0.0
        ]
      }
    },
    {
      "model": {
        "parent": "minecraft:block/redstone_wall_torch"
      },
      "transform": {
        "origin": [
          0.5,
          0.5,
          0.5
        ],
        "rotation": [
          90.0,
          0.0,
          90.0
        ],
        "translation": [
          1.0,
          0.0,
          2.0
        ]
      }
    },
    {
      "model": {
        "parent": "minecraft:block/redstone_wall_torch_off"
      },
      "transform": {
        "origin": [
          0.5,
          0.5,
          0.5
        ],
        "rotation": [
          -90.0,
          0.0,
          90.0
        ],
        "translation": [
          1.0,
          0.0,
          0.0
        ]
      }
    },
    {
      "model": {
        "parent": "tcombat:item/redstone_dust_dot_tint1"
      },
      "transform": {
        "origin": [
          0.5,
          0.5,
          1.5
        ],
        "rotation": [
          0.0,
          0.0,
          90.0
        ],
        "translation": [
          1.0E-5,
          0.0,
          1.0
        ]
      }
    },
    {
      "model": {
        "parent": "minecraft:block/dispenser"
      },
      "transform": {
        "translation": [
          0.0,
          0.0,
          0.0
        ]
      }
    },
    {
      "model": {
        "parent": "minecraft:block/stone"
      },
      "transform": {
        "translation": [
          1.0,
          0.0,
          1.0
        ]
      }
    },
    {
      "model": {
        "parent": "minecraft:block/stone"
      },
      "transform": {
        "translation": [
          0.0,
          0.0,
          2.0
        ]
      }
    }
  ]
}