{
  "type": "minecraft:crafting_shaped",
  "category": "equipment",
  "key": {
    "a": {
      "item": "minecraft:arrow"
    },
    "c": {
      "item": "minecraft:redstone"
    }
  },
  "pattern": [
    "aaa",
    "aca",
    "aaa"
  ],
  "result": {
    "count": 8,
    "id": "tcombat:snipe_arrow"
  }
}